{
  "project_info": {
    "project_number": "822468188543",
    "firebase_url": "https://registeractivity-b53d5.firebaseio.com",
    "project_id": "registeractivity-b53d5",
    "storage_bucket": "registeractivity-b53d5.appspot.com"
  },
  "client": [
    {
      "client_info": {
        "mobilesdk_app_id": "1:822468188543:android:631b603dc35d092edd624a",
        "android_client_info": {
          "package_name": "com.example.registeration"
        }
      },
      "oauth_client": [
        {
          "client_id": "822468188543-qomur3ejuaoajerp2gbo8v8bv32ibafd.apps.googleusercontent.com",
          "client_type": 3
        }
      ],
      "api_key": [
        {
          "current_key": "AIzaSyACBd3uaR4_7yvVKx1XWdvCFpJtYCcrI9c"
        }
      ],
      "services": {
        "appinvite_service": {
          "other_platform_oauth_client": [
            {
              "client_id": "822468188543-qomur3ejuaoajerp2gbo8v8bv32ibafd.apps.googleusercontent.com",
              "client_type": 3
            }
          ]
        }
      }
    }
  ],
  "configuration_version": "1"
}